…
PROGRESS 77.78% 
FILE 7 OF 9 | 0.117 SECONDS

PROGRESS 88.89% 
FILE 8 OF 9 | 0.064 SECONDS

PROGRESS 100% 
FILE 9 OF 9 | 0.126 SECONDS

TOTAL TIME 1.571 SECONDS

> dim(ef)
[1] 2389 1093
> ef
# A tibble: 2,389 x 1,093
   file_name    F0    F1    F2    F3    F4    F5    F6    F7    F8  ZCR1   MHS
   <chr>     <dbl> <int> <int> <int> <int> <int> <int> <int> <int> <dbl> <dbl>
 1 lbo001.w…    NA    NA  1863    NA  3087  4218  5233  6144  6643 1134.    NA
 2 lbo001.w…    NA    NA  1863    NA  3179  4172  5259  6712    NA  831.    NA
 3 lbo001.w…    NA    NA  1933  3055  3731  4663  5658  6775    NA  827.    NA
 4 lbo001.w…    NA    NA  1777  2791  3712  4690  5657  6602  7771  774.    NA
 5 lbo001.w…    NA    NA  1710  2690  3536  4677  5653  6526    NA  942.    NA
 6 lbo001.w…    NA    NA  1794  2673  3560  4402  5119  6499    NA  962.    NA
 7 lbo001.w…    NA    NA  1873  2665  3640  4346  5164  6516    NA  856.    NA
 8 lbo001.w…    NA    NA  1932  2684  3550  4304  5190  6518    NA  730.    NA
 9 lbo001.w…    NA   148  1960  2648  3248  3640  5214  6498  7668  812.    NA
10 lbo001.w…    NA   202  1965  2650  3284  3664  5210  6497  7716 1148.    NA
# … with 2,379 more rows, and 1,081 more variables: RMS <dbl>, GAIN <dbl>,
#   RFC1 <dbl>, RFC2 <dbl>, RFC3 <dbl>, RFC4 <dbl>, RFC5 <dbl>, RFC6 <dbl>,
#   RFC7 <dbl>, RFC8 <dbl>, RFC9 <dbl>, RFC10 <dbl>, RFC11 <dbl>, RFC12 <dbl>,
#   RFC13 <dbl>, RFC14 <dbl>, RFC15 <dbl>, RFC16 <dbl>, RFC17 <dbl>,
#   RFC18 <dbl>, RFC19 <dbl>, ACF1 <dbl>, ACF2 <dbl>, ACF3 <dbl>, ACF4 <dbl>,
#   ACF5 <dbl>, ACF6 <dbl>, ACF7 <dbl>, ACF8 <dbl>, ACF9 <dbl>, ACF10 <dbl>,
#   ACF11 <dbl>, ACF12 <dbl>, ACF13 <dbl>, ACF14 <dbl>, ACF15 <dbl>,
#   ACF16 <dbl>, ACF17 <dbl>, ACF18 <dbl>, ACF19 <dbl>, ACF20 <dbl>,
#   CEP1 <dbl>, CEP2 <dbl>, CEP3 <dbl>, CEP4 <dbl>, CEP5 <dbl>, CEP6 <dbl>,
…
PROGRESS 77.78% 
FILE 7 OF 9 | 0.005 SECONDS

PROGRESS 88.89% 
FILE 8 OF 9 | 0.004 SECONDS

PROGRESS 100% 
FILE 9 OF 9 | 0.005 SECONDS

TOTAL TIME 0.68 SECONDS

> dim(ef2)
[1] 2389   65
> ef2
# A tibble: 2,389 x 65
   file_name    F0    F1    F2    F3    F4    F5    F6    F7    F8  ZCR1   MHS
   <chr>     <dbl> <int> <int> <int> <int> <int> <int> <int> <int> <dbl> <dbl>
 1 lbo001.w…    NA    NA  1863    NA  3087  4218  5233  6144  6643 1134.    NA
 2 lbo001.w…    NA    NA  1863    NA  3179  4172  5259  6712    NA  831.    NA
 3 lbo001.w…    NA    NA  1933  3055  3731  4663  5658  6775    NA  827.    NA
 4 lbo001.w…    NA    NA  1777  2791  3712  4690  5657  6602  7771  774.    NA
 5 lbo001.w…    NA    NA  1710  2690  3536  4677  5653  6526    NA  942.    NA
 6 lbo001.w…    NA    NA  1794  2673  3560  4402  5119  6499    NA  962.    NA
 7 lbo001.w…    NA    NA  1873  2665  3640  4346  5164  6516    NA  856.    NA
 8 lbo001.w…    NA    NA  1932  2684  3550  4304  5190  6518    NA  730.    NA
 9 lbo001.w…    NA   148  1960  2648  3248  3640  5214  6498  7668  812.    NA
10 lbo001.w…    NA   202  1965  2650  3284  3664  5210  6497  7716 1148.    NA
# … with 2,379 more rows, and 53 more variables: RMS <dbl>, GAIN <dbl>,
#   RFC1 <dbl>, RFC2 <dbl>, RFC3 <dbl>, RFC4 <dbl>, RFC5 <dbl>, RFC6 <dbl>,
#   RFC7 <dbl>, RFC8 <dbl>, RFC9 <dbl>, RFC10 <dbl>, RFC11 <dbl>, RFC12 <dbl>,
#   RFC13 <dbl>, RFC14 <dbl>, RFC15 <dbl>, RFC16 <dbl>, RFC17 <dbl>,
#   RFC18 <dbl>, RFC19 <dbl>, ACF1 <dbl>, ACF2 <dbl>, ACF3 <dbl>, ACF4 <dbl>,
#   ACF5 <dbl>, ACF6 <dbl>, ACF7 <dbl>, ACF8 <dbl>, ACF9 <dbl>, ACF10 <dbl>,
#   ACF11 <dbl>, ACF12 <dbl>, ACF13 <dbl>, ACF14 <dbl>, ACF15 <dbl>,
#   ACF16 <dbl>, ACF17 <dbl>, ACF18 <dbl>, ACF19 <dbl>, ACF20 <dbl>,
#   MFCC1 <dbl>, MFCC2 <dbl>, MFCC3 <dbl>, MFCC4 <dbl>, MFCC5 <dbl>,
…
PROGRESS 50% 
FILE 2 OF 4 | 0.085 SECONDS

PROGRESS 75% 
FILE 3 OF 4 | 0.003 SECONDS

PROGRESS 100% 
FILE 4 OF 4 | 0.003 SECONDS

TOTAL TIME 0.424 SECONDS

> dim(ef3)
[1] 1079   65
> ef3
# A tibble: 1,079 x 65
   file_name    F0    F1    F2    F3    F4    F5    F6    F7    F8  ZCR1   MHS
   <chr>     <dbl> <int> <int> <int> <int> <int> <int> <int> <int> <dbl> <dbl>
 1 lbo003.w…    NA    NA  1745  2976  4050  4712  5706  6754  7592  686.    NA
 2 lbo003.w…    NA  1661  2649  3345  4333  4624  5665  6739  7816  811.    NA
 3 lbo003.w…    NA    NA  1663  2647  3473  4455  5524  6659  7740  810.    NA
 4 lbo003.w…    NA    NA  1634  2639  3599  4476  5302  6595    NA  946.    NA
 5 lbo003.w…    NA    NA  1626  2631  3639  4451  5395  6675    NA 1007.    NA
 6 lbo003.w…    NA    NA  1628  2615  3492  4322  5294  6115  6879  843.    NA
 7 lbo003.w…    NA    NA  2072  2639  3798  4041  5050  6097  7013 1015.    NA
 8 lbo003.w…    NA    NA  1390  2270  2657  3970  4976  6057  6963 1196.    NA
 9 lbo003.w…    NA  1393  2247  2653  3966  4955  6045  6803    NA 1133.    NA
10 lbo003.w…    NA    NA  1909  2642  3903    NA  5050  6483    NA 1706.    NA
# … with 1,069 more rows, and 53 more variables: RMS <dbl>, GAIN <dbl>,
#   RFC1 <dbl>, RFC2 <dbl>, RFC3 <dbl>, RFC4 <dbl>, RFC5 <dbl>, RFC6 <dbl>,
#   RFC7 <dbl>, RFC8 <dbl>, RFC9 <dbl>, RFC10 <dbl>, RFC11 <dbl>, RFC12 <dbl>,
#   RFC13 <dbl>, RFC14 <dbl>, RFC15 <dbl>, RFC16 <dbl>, RFC17 <dbl>,
#   RFC18 <dbl>, RFC19 <dbl>, ACF1 <dbl>, ACF2 <dbl>, ACF3 <dbl>, ACF4 <dbl>,
#   ACF5 <dbl>, ACF6 <dbl>, ACF7 <dbl>, ACF8 <dbl>, ACF9 <dbl>, ACF10 <dbl>,
#   ACF11 <dbl>, ACF12 <dbl>, ACF13 <dbl>, ACF14 <dbl>, ACF15 <dbl>,
#   ACF16 <dbl>, ACF17 <dbl>, ACF18 <dbl>, ACF19 <dbl>, ACF20 <dbl>,
#   MFCC1 <dbl>, MFCC2 <dbl>, MFCC3 <dbl>, MFCC4 <dbl>, MFCC5 <dbl>,
…
