voice vignette
…
Get audios

url0 <- 'https://github.com/filipezabala/voiceAudios/raw/main/wav/bebezinho_2.005.wav'
download.file(url0, paste0(wavDir, '/bebezinho_2.005.wav'), mode = 'wb')

Extract features

ef <- voice::extract_features(wavDir, features = c('f0','formants','gain'),
                              round.to = 6, windowShift = 5)
#> PROGRESS 100% 
#> FILE 1 OF 1 | 0.001 SECONDS
#> 
#> TOTAL TIME 0.676 SECONDS
ef
#> # A tibble: 400 × 11
#>    file_name            F0    F1    F2    F3    F4    F5    F6    F7    F8  GAIN
#>    <chr>             <dbl> <dbl> <dbl> <dbl> <dbl> <dbl> <dbl> <dbl> <dbl> <dbl>
#>  1 bebezinho_2.005.…  156.   323  1658  2940    NA  4302  5306  6257  7221  51.8
#>  2 bebezinho_2.005.…  158.   299  1843    NA  3085  4196  5262  6209  7219  48.9
#>  3 bebezinho_2.005.…  160.   297  1838  1878  3137  4111  5074  6129  7238  41.3
#>  4 bebezinho_2.005.…  159.   302  1814  2080  3135  4096  4539  6222  7268  29.7
#>  5 bebezinho_2.005.…  158.   304  1902  1964  3100  4125  4431  6255  7281  25.0
#>  6 bebezinho_2.005.…  153.   303  1660  2027  3068  4180  4267  6304  7301  25.1
#>  7 bebezinho_2.005.…  151.   300  1672  1988  3087  4051  4190  6287  7267  26.0
#>  8 bebezinho_2.005.…  148.   295  1644  1922  3100  4155    NA  6245  7187  27.0
#>  9 bebezinho_2.005.…  145.   294  1927  3101  3904  4178    NA  6221  7163  27.3
#> 10 bebezinho_2.005.…  145.   298  1937    NA  3102  4189    NA  6080  7181  26.5
#> # … with 390 more rows
…
